{
    "properties": {
        "gene_id": {"type": "text", "analyzer": "standard"},
        "organism": {"type": "text", "analyzer": "standard"},
        "assembly": {"type": "text", "analyzer": "standard"},
        "annotation": {"type": "text", "analyzer": "standard"},
        "eggnog_og_terms": {"type": "text", "analyzer": "standard"},
        "go_ids": {"type": "text", "analyzer": "standard"},
        "go_terms": {"type": "text", "analyzer": "standard"},
        "interpro_ids": {"type": "text", "analyzer": "standard"},
        "interpro_terms": {"type": "text", "analyzer": "standard"},
        "diamond_ids": {"type": "text", "analyzer": "standard"},
        "diamond_terms": {"type": "text", "analyzer": "standard"}
    }
}
